<?xml version="1.0" encoding="utf-8"?>
<!-- Generator: Adobe Illustrator 22.1.0, SVG Export Plug-In . SVG Version: 6.00 Build 0)  -->
<svg version="1.1" id="Camada_1" xmlns="http://www.w3.org/2000/svg" xmlns:xlink="http://www.w3.org/1999/xlink" x="0px" y="0px"
	 viewBox="0 0 897 660" style="enable-background:new 0 0 897 660;" xml:space="preserve">
<style type="text/css">
	.st0{fill:#8A8A8A;}
</style>
<path class="st0" d="M767.5,7.1c7-3.9,14.4-5.9,22.5-5.2c3.4,0.3,6.7,1.4,10,2.2c6,2.6,10.7,6.8,15.3,11.4
	c23.4,23.5,46.9,46.9,70.3,70.4c11.1,11.1,13.7,24.2,8.3,38.8c-1.9,5.1-5.3,9.2-9.1,13C810.3,212.1,735.8,286.5,661.4,361
	c-48.7,48.7-97.5,97.4-146.2,146.2c-47.1,47.1-94.3,94.3-141.4,141.4c-14.9,14.9-36.7,14.9-51.5-0.1
	c-103.3-104.1-206.7-208.1-310-312.2c-1.9-1.9-3.7-3.9-5.2-6.1c-2.7-3.9-4.5-8-4.2-13c0.3-5,0.2-10,0-15c-0.1-3,0.7-5.6,2-8.1
	c1.9-3.5,4.3-6.5,7.1-9.3c24.5-24.5,48.9-48.9,73.4-73.4c14.3-14.3,36.3-14.2,50.6,0.2c69.7,70.2,139.4,140.4,209.1,210.6
	c0.6,0.7,1.3,1.3,1.9,2c0.9,1.1,1.7,1.2,2.6,0c0.2-0.3,0.6-0.6,0.9-0.9c53.2-53.2,106.4-106.4,159.6-159.6
	c27.1-27.1,54.3-54.1,81.4-81.3C646.5,127.3,701.6,72.1,756.6,17C760.1,13.5,763.5,10,767.5,7.1z"/>
</svg>
