<?xml version="1.0" encoding="utf-8"?>
<!-- Generator: Adobe Illustrator 22.1.0, SVG Export Plug-In . SVG Version: 6.00 Build 0)  -->
<svg version="1.1" id="Camada_1" xmlns="http://www.w3.org/2000/svg" xmlns:xlink="http://www.w3.org/1999/xlink" x="0px" y="0px"
	 viewBox="0 0 278 309" style="enable-background:new 0 0 278 309;" xml:space="preserve">
<style type="text/css">
	.st0{fill:#f15b08;}
</style>
<path class="st0" d="M1.5,269.6c-0.1-0.7-0.2-1.5-0.2-2.2c-0.1-0.3-0.1-0.6,0-0.9c-0.3-2.5,0-5,0-7.5c0.7-6.4,2.8-12.3,6.2-17.7
	c6-9.5,14.5-15.9,24.9-19.9c4.8-1.9,9.7-3,14.9-3.4c13-1.2,25.2,1.5,36.3,8.5c0.8,0.5,1.5,1,2.5,1.6c0-0.6,0-1,0-1.3
	c0-59,0-118,0-177.1c0-1,0.3-1.3,1.2-1.5c33.5-8.3,67.1-16.6,100.6-24.9c29.9-7.4,59.8-14.8,89.7-22.2c0.1,0,0.2,0,0.3,0
	c0.3,0.3,0.2,0.7,0.2,1c0,72.9,0,145.9,0,218.8c0,1.4-0.1,2.7-0.2,4.1c0.1,1.1,0,2.2-0.2,3.2c-1.5,7.3-4.7,13.9-9.5,19.6
	c-7.6,8.9-17.3,14.5-28.7,17.1c-3.4,0.8-6.8,1.2-10.2,1.4c-11.2,0.6-21.6-1.8-31.3-7.2c-8.3-4.7-14.8-11.1-19.2-19.6
	c-2.4-4.6-4-9.5-4.4-14.8c-1.1-12.3,2.6-23,10.7-32.2c7.8-8.9,17.7-14.2,29.2-16.6c3.4-0.7,6.8-1.1,10.3-1.2
	c8.7-0.3,17.1,1.3,25.1,4.8c3,1.3,5.8,2.8,8.5,4.7c0.3,0.2,0.5,0.5,0.8,0.4c0.4-0.2,0.2-0.6,0.2-0.9c0-37.6,0-75.1,0-112.7
	c0-1.3-0.1-1.4-1.3-1c-9.9,2.5-19.8,4.9-29.7,7.4c-11.4,2.8-22.8,5.6-34.2,8.5c-6.2,1.5-12.5,3.1-18.7,4.6
	c-13.8,3.4-27.7,6.8-41.5,10.3c-8.9,2.2-17.9,4.4-26.8,6.6c-1.5,0.4-1.5,0.4-1.5,1.9c0,51.6,0,103.1,0,154.7c0,7.2-2,13.9-5.5,20.2
	c-4.6,8.1-11.3,14.1-19.5,18.6c-6.6,3.6-13.6,5.7-21.1,6.4c-11.5,1.1-22.4-0.7-32.7-6.1c-9.2-4.8-16.5-11.7-21.2-21.1
	c-1.7-3.3-2.9-6.9-3.6-10.5C1.4,270.6,1.2,270.1,1.5,269.6z"/>
</svg>
