<?xml version="1.0" encoding="utf-8"?>
<!-- Generator: Adobe Illustrator 22.1.0, SVG Export Plug-In . SVG Version: 6.00 Build 0)  -->
<svg version="1.1" id="Camada_1" xmlns="http://www.w3.org/2000/svg" xmlns:xlink="http://www.w3.org/1999/xlink" x="0px" y="0px"
	 viewBox="0 0 778 768" style="enable-background:new 0 0 778 768;" xml:space="preserve">
<style type="text/css">
	.st0{fill:#8A8A8A;}
</style>
<path class="st0" d="M767.5,350.5c-2.4-34.4-9.5-67.9-21.5-100.3c-28.9-78.6-78.2-141.5-147.9-187.8C534,19.7,463.1-1.1,386-0.9
	c-38.5,0.1-76,5.8-112.7,17.5C152.4,55.3,59.7,149.5,23.1,271c-3.9,13-6.9,26.2-9.6,39.5c-0.7,0.8-0.4,1.9-0.6,2.9
	c-0.9,4.5-1.6,9.1-2.2,13.6c-0.6,4.9-1.2,9.8-1.7,14.7c-0.6,6-1.1,12-1.4,18c0,0.9,0,1.7,0,2.6c0.1,0.8-0.2,1.7,0.2,2.5
	c0,6.4-0.6,12.8-0.4,19.2c0.1,3.8,0.9,7.6,0.4,11.4c-0.3,1.2-0.1,2.4-0.2,3.6c0,5.6,0.7,11.2,1.1,16.8c0.4,5.1,1,10.1,1.8,15.2
	c0.8,4.9,1.2,9.9,2.4,14.8c0.8,4.2,1.6,8.3,2.5,12.5C32.3,535.9,69.4,602.3,127,656.6c59.1,55.6,129.1,89.1,209.6,100.2
	c43.5,6,86.8,4.6,129.7-4.6C558,732.3,633,685.3,690,611.1C748.9,534.4,774.1,447,767.5,350.5z M596.4,544.3
	c-2,4.1-4.7,7.6-7.9,10.8c-9.7,9.7-19.5,19.4-29.1,29.2c-1.9,1.9-4,3.3-6.4,4.3c-7.5,3.3-15.2,5.8-23.7,5.1c-3.2-0.3-6.5,0-9.1,0
	c-86.5-4.5-162.2-34.2-226.3-91.5c-59.9-53.5-97.3-120.3-113.2-199.1c-4.7-23.4-7.2-47.1-6.5-71c0.3-8.9,3.4-17.4,9.9-24
	c9.6-9.8,19.1-19.8,29.2-29.1c13.8-12.7,30.1-16.2,48.3-11.4c12.8,3.4,23,10.6,31.2,20.9c4.8,6,8.3,12.6,10.2,20.1
	c4.7,17.6,9.9,35.1,14.2,52.8c4.7,19.2,0.2,36.3-13.4,50.8c-5.5,5.9-11.4,11.5-17.2,17.1c-1.4,1.4-1.8,2.6-1.2,4.5
	c16,54.1,48,96,96,125.7c16.6,10.3,34.4,17.8,53.2,23.2c1.6,0.5,2.6,0.1,3.7-1c5.7-5.8,11.4-11.4,17.1-17.2
	c11-11.2,24.7-15.5,40.1-15.5c8.5,0,16.3,3.2,24.3,5.3c13.3,3.5,26.6,7,39.7,10.9c19.4,5.8,32.5,18.4,39.5,37.5
	C604.2,516.9,603,530.7,596.4,544.3z"/>
</svg>
